[gd_scene load_steps=4 format=3 uid="uid://cpmvp6f28r2g0"]

[ext_resource type="PackedScene" uid="uid://vugn80qbyjuu" path="res://assets/player/player.tscn" id="1_koj8c"]
[ext_resource type="TileSet" uid="uid://cwocrchlf40ag" path="res://assets/floor_wallpaper_tileset_1.tres" id="1_mqj30"]
[ext_resource type="PackedScene" uid="uid://kivooce4ax13" path="res://assets/door/door.tscn" id="3_ddodv"]

[node name="room_electrical" type="Node2D"]

[node name="Player" parent="." instance=ExtResource("1_koj8c")]
z_index = 100
position = Vector2(566, 322)

[node name="TileMap" type="TileMap" parent="."]
tile_set = ExtResource("1_mqj30")
cell_quadrant_size = 32
format = 2
layer_0/name = "background"
layer_0/z_index = -100
layer_0/tile_data = PackedInt32Array(24, 0, 0, 65560, 65536, 1, 131096, 65536, 0, 196632, 65536, 1, 262168, 0, 0, 327704, 0, 1, 393240, 0, 0, 458776, 0, 1, 524312, 0, 0, 589848, 0, 1, 655384, 0, 2, 720920, 0, 3, 786456, 1, 0, 851992, 1, 1, 917528, 1, 0, 983064, 1, 1, 1048600, 1, 0, 1114136, 1, 1, 1179672, 65537, 0, 1245208, 65537, 1, 1310744, 1, 0, 1376280, 1, 1, 1441816, 65537, 0, 1507352, 65537, 1, 1572888, 1, 0, 1638424, 1, 1, 1703960, 1, 0, 1769496, 1, 1, 1835032, 1, 0, 1900568, 1, 1, 1966104, 65537, 0, 2031640, 65537, 1, 25, 0, 0, 65561, 0, 1, 131097, 0, 0, 196633, 0, 1, 262169, 65536, 0, 327705, 65536, 1, 393241, 65536, 0, 458777, 65536, 1, 524313, 65536, 0, 589849, 65536, 1, 655385, 65536, 2, 720921, 65536, 3, 786457, 65537, 0, 851993, 65537, 1, 917529, 65537, 0, 983065, 65537, 1, 1048601, 65537, 0, 1114137, 65537, 1, 1179673, 1, 0, 1245209, 1, 1, 1310745, 65537, 0, 1376281, 65537, 1, 1441817, 1, 0, 1507353, 1, 1, 1572889, 65537, 0, 1638425, 65537, 1, 1703961, 65537, 0, 1769497, 65537, 1, 1835033, 65537, 0, 1900569, 65537, 1, 1966105, 1, 0, 2031641, 1, 1, 26, 65536, 0, 65562, 65536, 1, 131098, 65536, 0, 196634, 65536, 1, 262170, 0, 0, 327706, 0, 1, 393242, 0, 0, 458778, 0, 1, 524314, 0, 0, 589850, 0, 1, 655386, 0, 2, 720922, 0, 3, 786458, 1, 0, 851994, 1, 1, 917530, 1, 0, 983066, 1, 1, 1048602, 1, 0, 1114138, 1, 1, 1179674, 65537, 0, 1245210, 65537, 1, 1310746, 1, 0, 1376282, 1, 1, 1441818, 65537, 0, 1507354, 65537, 1, 1572890, 1, 0, 1638426, 1, 1, 1703962, 1, 0, 1769498, 1, 1, 1835034, 1, 0, 1900570, 1, 1, 1966106, 65537, 0, 2031642, 65537, 1, 27, 0, 0, 65563, 0, 1, 131099, 327680, 0, 196635, 327680, 1, 262171, 65536, 2, 327707, 65536, 2, 393243, 65536, 0, 458779, 65536, 1, 524315, 65536, 0, 589851, 65536, 1, 655387, 65536, 2, 720923, 65536, 3, 786459, 65537, 0, 851995, 65537, 1, 917531, 65537, 0, 983067, 65537, 1, 1048603, 65537, 0, 1114139, 65537, 1, 1179675, 1, 0, 1245211, 1, 1, 1310747, 65537, 0, 1376283, 65537, 1, 1441819, 1, 0, 1507355, 1, 1, 1572891, 65537, 0, 1638427, 65537, 1, 1703963, 65537, 0, 1769499, 65537, 1, 1835035, 65537, 0, 1900571, 65537, 1, 1966107, 1, 0, 2031643, 1, 1, 28, 65536, 0, 65564, 65536, 1, 131100, 65536, 0, 196636, 65536, 1, 262172, 0, 0, 327708, 0, 1, 393244, 0, 0, 458780, 0, 1, 524316, 0, 0, 589852, 0, 1, 655388, 0, 2, 720924, 0, 3, 786460, 1, 0, 851996, 1, 1, 917532, 1, 0, 983068, 1, 1, 1048604, 1, 0, 1114140, 1, 1, 1179676, 65537, 0, 1245212, 65537, 1, 1310748, 1, 0, 1376284, 1, 1, 1441820, 65537, 0, 1507356, 65537, 1, 1572892, 1, 0, 1638428, 1, 1, 1703964, 1, 0, 1769500, 1, 1, 1835036, 1, 0, 1900572, 1, 1, 1966108, 65537, 0, 2031644, 65537, 1, 29, 0, 0, 65565, 0, 1, 131101, 0, 0, 196637, 65536, 2, 262173, 65536, 2, 327709, 65536, 1, 393245, 65536, 0, 458781, 65536, 1, 524317, 65536, 0, 589853, 65536, 1, 655389, 65536, 2, 720925, 65536, 3, 786461, 65537, 0, 851997, 65537, 1, 917533, 65537, 0, 983069, 65537, 1, 1048605, 65537, 0, 1114141, 65537, 1, 1179677, 1, 0, 1245213, 1, 1, 1310749, 65537, 0, 1376285, 65537, 1, 1441821, 1, 0, 1507357, 1, 1, 1572893, 65537, 0, 1638429, 65537, 1, 1703965, 65537, 0, 1769501, 65537, 1, 1835037, 65537, 0, 1900573, 65537, 1, 1966109, 1, 0, 2031645, 1, 1, 30, 65536, 0, 65566, 131072, 0, 131102, 131072, 1, 196638, 65536, 2, 262174, 65536, 2, 327710, 0, 1, 393246, 0, 0, 458782, 0, 1, 524318, 0, 0, 589854, 0, 1, 655390, 0, 2, 720926, 0, 3, 786462, 1, 0, 851998, 1, 1, 917534, 1, 0, 983070, 1, 1, 1048606, 1, 0, 1114142, 1, 1, 1179678, 65537, 0, 1245214, 65537, 1, 1310750, 1, 0, 1376286, 1, 1, 1441822, 65537, 0, 1507358, 65537, 1, 1572894, 1, 0, 1638430, 1, 1, 1703966, 1, 0, 1769502, 1, 1, 1835038, 1, 0, 1900574, 1, 1, 1966110, 65537, 0, 2031646, 65537, 1, 31, 0, 0, 65567, 196608, 0, 131103, 196608, 1, 196639, 0, 1, 262175, 65536, 0, 327711, 65536, 1, 393247, 65536, 0, 458783, 65536, 1, 524319, 65536, 0, 589855, 65536, 1, 655391, 65536, 2, 720927, 65536, 3, 786463, 65537, 0, 851999, 65537, 1, 917535, 65537, 0, 983071, 65537, 1, 1048607, 65537, 0, 1114143, 65537, 1, 1179679, 1, 0, 1245215, 1, 1, 1310751, 65537, 0, 1376287, 65537, 1, 1441823, 1, 0, 1507359, 1, 1, 1572895, 65537, 0, 1638431, 65537, 1, 1703967, 65537, 0, 1769503, 65537, 1, 1835039, 65537, 0, 1900575, 65537, 1, 1966111, 1, 0, 2031647, 1, 1, 32, 65536, 0, 65568, 262144, 0, 131104, 262144, 1, 196640, 65536, 1, 262176, 0, 0, 327712, 0, 1, 393248, 0, 0, 458784, 0, 1, 524320, 0, 0, 589856, 0, 1, 655392, 0, 2, 720928, 0, 3, 786464, 1, 0, 852000, 1, 1, 917536, 1, 0, 983072, 1, 1, 1048608, 1, 0, 1114144, 1, 1, 1179680, 65537, 0, 1245216, 65537, 1, 1310752, 1, 0, 1376288, 1, 1, 1441824, 65537, 0, 1507360, 65537, 1, 1572896, 1, 0, 1638432, 1, 1, 1703968, 65537, 0, 1769504, 65537, 1, 1835040, 1, 0, 1900576, 1, 1, 1966112, 65537, 0, 2031648, 65537, 1, 33, 0, 0, 65569, 327680, 0, 131105, 327680, 1, 196641, 0, 1, 262177, 65536, 0, 327713, 65536, 1, 393249, 65536, 0, 458785, 65536, 1, 524321, 65536, 2, 589857, 65536, 2, 655393, 65536, 2, 720929, 65536, 3, 786465, 65537, 0, 852001, 65537, 1, 917537, 65537, 0, 983073, 65537, 1, 1048609, 65537, 0, 1114145, 65537, 1, 1179681, 1, 0, 1245217, 1, 1, 1310753, 65537, 0, 1376289, 65537, 1, 1441825, 1, 0, 1507361, 1, 1, 1572897, 65537, 0, 1638433, 65537, 1, 1703969, 1, 0, 1769505, 1, 1, 1835041, 65537, 0, 1900577, 65537, 1, 1966113, 1, 0, 2031649, 1, 1, 34, 65536, 0, 65570, 65536, 1, 131106, 65536, 0, 196642, 65536, 1, 262178, 0, 0, 327714, 0, 1, 393250, 0, 0, 458786, 0, 1, 524322, 65536, 2, 589858, 65536, 2, 655394, 0, 2, 720930, 0, 3, 786466, 1, 0, 852002, 1, 1, 917538, 1, 0, 983074, 1, 1, 1048610, 1, 0, 1114146, 1, 1, 1179682, 65537, 0, 1245218, 65537, 1, 1310754, 1, 0, 1376290, 1, 1, 1441826, 65537, 0, 1507362, 65537, 1, 1572898, 1, 0, 1638434, 1, 1, 1703970, 65537, 0, 1769506, 65537, 1, 1835042, 1, 0, 1900578, 1, 1, 1966114, 65537, 0, 2031650, 65537, 1, 35, 0, 0, 65571, 0, 1, 131107, 65536, 0, 196643, 65536, 1, 262179, 65536, 0, 327715, 65536, 1, 393251, 65536, 0, 458787, 65536, 1, 524323, 65536, 2, 589859, 65536, 2, 655395, 65536, 2, 720931, 65536, 3, 786467, 65537, 0, 852003, 65537, 1, 917539, 65537, 0, 983075, 65537, 1, 1048611, 65537, 0, 1114147, 65537, 1, 1179683, 1, 0, 1245219, 1, 1, 1310755, 65537, 0, 1376291, 65537, 1, 1441827, 1, 0, 1507363, 1, 1, 1572899, 65537, 0, 1638435, 65537, 1, 1703971, 1, 0, 1769507, 1, 1, 1835043, 65537, 0, 1900579, 65537, 1, 1966115, 1, 0, 2031651, 1, 1, 36, 65536, 0, 65572, 65536, 1, 131108, 0, 0, 196644, 0, 1, 262180, 0, 0, 327716, 0, 1, 393252, 0, 0, 458788, 0, 1, 524324, 327680, 0, 589860, 65536, 2, 655396, 0, 2, 720932, 0, 3, 786468, 1, 0, 852004, 1, 1, 917540, 1, 0, 983076, 1, 1, 1048612, 1, 0, 1114148, 1, 1, 1179684, 65537, 0, 1245220, 65537, 1, 1310756, 1, 0, 1376292, 1, 1, 1441828, 65537, 0, 1507364, 65537, 1, 1572900, 1, 0, 1638436, 1, 1, 1703972, 65537, 0, 1769508, 65537, 1, 1835044, 1, 0, 1900580, 1, 1, 1966116, 65537, 0, 2031652, 65537, 1, 37, 0, 0, 65573, 0, 1, 131109, 65536, 0, 196645, 65536, 1, 262181, 65536, 0, 327717, 0, 0, 393253, 0, 1, 458789, 0, 2, 524325, 65536, 0, 589861, 65536, 1, 655397, 65536, 2, 720933, 65536, 3, 786469, 65537, 0, 852005, 65537, 1, 917541, 65537, 0, 983077, 65537, 1, 1048613, 65537, 0, 1114149, 65537, 1, 1179685, 1, 0, 1245221, 1, 1, 1310757, 65537, 0, 1376293, 65537, 1, 1441829, 1, 0, 1507365, 1, 1, 1572901, 65537, 0, 1638437, 65537, 1, 1703973, 1, 0, 1769509, 1, 1, 1835045, 65537, 0, 1900581, 65537, 1, 1966117, 1, 0, 2031653, 1, 1, 38, 65536, 0, 65574, 65536, 1, 131110, 0, 0, 196646, 0, 1, 262182, 0, 2, 327718, 65536, 0, 393254, 65536, 1, 458790, 65536, 2, 524326, 0, 0, 589862, 0, 1, 655398, 0, 2, 720934, 0, 3, 786470, 1, 0, 852006, 1, 1, 917542, 1, 0, 983078, 1, 1, 1048614, 1, 0, 1114150, 1, 1, 1179686, 65537, 0, 1245222, 65537, 1, 1310758, 1, 0, 1376294, 1, 1, 1441830, 65537, 0, 1507366, 65537, 1, 1572902, 1, 0, 1638438, 1, 1, 1703974, 65537, 0, 1769510, 65537, 1, 1835046, 1, 0, 1900582, 1, 1, 1966118, 65537, 0, 2031654, 65537, 1, 39, 0, 0, 65575, 0, 1, 131111, 65536, 0, 196647, 65536, 1, 262183, 0, 0, 327719, 0, 0, 393255, 0, 1, 458791, 0, 2, 524327, 65536, 0, 589863, 65536, 1, 655399, 65536, 2, 720935, 65536, 3, 786471, 65537, 0, 852007, 65537, 1, 917543, 65537, 0, 983079, 65537, 1, 1048615, 65537, 0, 1114151, 65537, 1, 1179687, 1, 0, 1245223, 1, 1, 1310759, 65537, 0, 1376295, 65537, 1, 1441831, 1, 0, 1507367, 1, 1, 1572903, 65537, 0, 1638439, 65537, 1, 1703975, 1, 0, 1769511, 1, 1, 1835047, 65537, 0, 1900583, 65537, 1, 1966119, 1, 0, 2031655, 1, 1, 40, 65536, 0, 65576, 65536, 1, 131112, 0, 0, 196648, 0, 1, 262184, 65536, 0, 327720, 65536, 0, 393256, 65536, 1, 458792, 65536, 2, 524328, 0, 0, 589864, 0, 1, 655400, 0, 2, 720936, 0, 3, 786472, 1, 0, 852008, 1, 1, 917544, 1, 0, 983080, 1, 1, 1048616, 1, 0, 1114152, 1, 1, 1179688, 65537, 0, 1245224, 65537, 1, 1310760, 1, 0, 1376296, 1, 1, 1441832, 65537, 0, 1507368, 65537, 1, 1572904, 1, 0, 1638440, 1, 1, 1703976, 65537, 0, 1769512, 65537, 1, 1835048, 1, 0, 1900584, 1, 1, 1966120, 65537, 0, 2031656, 65537, 1, 41, 0, 0, 65577, 0, 1, 131113, 65536, 0, 196649, 65536, 1, 262185, 0, 0, 327721, 0, 0, 393257, 0, 1, 458793, 0, 2, 524329, 65536, 0, 589865, 65536, 1, 655401, 65536, 2, 720937, 65536, 3, 786473, 65537, 0, 852009, 65537, 1, 917545, 65537, 0, 983081, 65537, 1, 1048617, 65537, 0, 1114153, 65537, 1, 1179689, 1, 0, 1245225, 1, 1, 1310761, 65537, 0, 1376297, 65537, 1, 1441833, 1, 0, 1507369, 1, 1, 1572905, 65537, 0, 1638441, 65537, 1, 1703977, 1, 0, 1769513, 1, 1, 1835049, 65537, 0, 1900585, 65537, 1, 1966121, 1, 0, 2031657, 1, 1, 42, 65536, 0, 65578, 65536, 1, 131114, 0, 0, 196650, 0, 1, 262186, 65536, 0, 327722, 65536, 0, 393258, 65536, 1, 458794, 65536, 2, 524330, 0, 0, 589866, 0, 1, 655402, 0, 2, 720938, 0, 3, 786474, 1, 0, 852010, 1, 1, 917546, 1, 0, 983082, 1, 1, 1048618, 1, 0, 1114154, 1, 1, 1179690, 65537, 0, 1245226, 65537, 1, 1310762, 1, 0, 1376298, 1, 1, 1441834, 65537, 0, 1507370, 65537, 1, 1572906, 1, 0, 1638442, 1, 1, 1703978, 65537, 0, 1769514, 65537, 1, 1835050, 1, 0, 1900586, 1, 1, 1966122, 65537, 0, 2031658, 65537, 1, 43, 0, 0, 65579, 0, 1, 131115, 65536, 0, 196651, 65536, 1, 262187, 0, 0, 327723, 0, 0, 393259, 0, 1, 458795, 0, 2, 524331, 65536, 0, 589867, 65536, 1, 655403, 65536, 2, 720939, 65536, 3, 786475, 65537, 0, 852011, 65537, 1, 917547, 65537, 0, 983083, 65537, 1, 1048619, 65537, 0, 1114155, 65537, 1, 1179691, 1, 0, 1245227, 1, 1, 1310763, 65537, 0, 1376299, 65537, 1, 1441835, 1, 0, 1507371, 1, 1, 1572907, 65537, 0, 1638443, 65537, 1, 1703979, 1, 0, 1769515, 1, 1, 1835051, 65537, 0, 1900587, 65537, 1, 1966123, 1, 0, 2031659, 1, 1, 44, 65536, 0, 65580, 65536, 1, 131116, 0, 0, 196652, 0, 1, 262188, 65536, 0, 327724, 65536, 0, 393260, 65536, 1, 458796, 65536, 2, 524332, 0, 0, 589868, 0, 1, 655404, 0, 2, 720940, 0, 3, 786476, 1, 0, 852012, 1, 1, 917548, 1, 0, 983084, 1, 1, 1048620, 1, 0, 1114156, 1, 1, 1179692, 65537, 0, 1245228, 65537, 1, 1310764, 1, 0, 1376300, 1, 1, 1441836, 65537, 0, 1507372, 65537, 1, 1572908, 1, 0, 1638444, 1, 1, 1703980, 65537, 0, 1769516, 65537, 1, 1835052, 1, 0, 1900588, 1, 1, 1966124, 65537, 0, 2031660, 65537, 1, 45, 0, 0, 65581, 0, 1, 131117, 65536, 0, 196653, 65536, 1, 262189, 0, 0, 327725, 0, 0, 393261, 0, 1, 458797, 0, 2, 524333, 65536, 0, 589869, 65536, 1, 655405, 65536, 2, 720941, 65536, 3, 786477, 65537, 0, 852013, 65537, 1, 917549, 65537, 0, 983085, 65537, 1, 1048621, 65537, 0, 1114157, 65537, 1, 1179693, 1, 0, 1245229, 1, 1, 1310765, 65537, 0, 1376301, 65537, 1, 1441837, 1, 0, 1507373, 1, 1, 1572909, 65537, 0, 1638445, 65537, 1, 1703981, 1, 0, 1769517, 1, 1, 1835053, 65537, 0, 1900589, 65537, 1, 1966125, 1, 0, 2031661, 1, 1, 46, 65536, 0, 65582, 65536, 1, 131118, 0, 0, 196654, 0, 1, 262190, 65536, 0, 327726, 65536, 0, 393262, 65536, 1, 458798, 65536, 2, 524334, 0, 0, 589870, 0, 1, 655406, 0, 2, 720942, 0, 3, 786478, 1, 0, 852014, 1, 1, 917550, 1, 0, 983086, 1, 1, 1048622, 1, 0, 1114158, 1, 1, 1179694, 65537, 0, 1245230, 65537, 1, 1310766, 1, 0, 1376302, 1, 1, 1441838, 65537, 0, 1507374, 65537, 1, 1572910, 1, 0, 1638446, 1, 1, 1703982, 65537, 0, 1769518, 65537, 1, 1835054, 1, 0, 1900590, 1, 1, 1966126, 65537, 0, 2031662, 65537, 1, 47, 0, 0, 65583, 0, 1, 131119, 65536, 0, 196655, 65536, 1, 262191, 0, 0, 327727, 0, 0, 393263, 0, 1, 458799, 0, 2, 524335, 65536, 0, 589871, 65536, 1, 655407, 0, 2, 720943, 0, 3, 786479, 65537, 0, 852015, 65537, 1, 917551, 65537, 0, 983087, 65537, 1, 1048623, 65537, 0, 1114159, 65537, 1, 1179695, 1, 0, 1245231, 1, 1, 1310767, 65537, 0, 1376303, 65537, 1, 1441839, 1, 0, 1507375, 1, 1, 1572911, 65537, 0, 1638447, 65537, 1, 1703983, 1, 0, 1769519, 1, 1, 1835055, 65537, 0, 1900591, 65537, 1, 1966127, 1, 0, 2031663, 1, 1, 48, 65536, 0, 65584, 65536, 1, 131120, 0, 0, 196656, 0, 1, 262192, 65536, 0, 327728, 65536, 0, 393264, 65536, 1, 458800, 65536, 2, 524336, 0, 0, 589872, 0, 1, 655408, 65536, 2, 720944, 65536, 3, 786480, 1, 0, 852016, 1, 1, 917552, 1, 0, 983088, 1, 1, 1048624, 1, 0, 1114160, 1, 1, 1179696, 65537, 0, 1245232, 65537, 1, 1310768, 1, 0, 1376304, 1, 1, 1441840, 65537, 0, 1507376, 65537, 1, 1572912, 1, 0, 1638448, 1, 1, 1703984, 65537, 0, 1769520, 65537, 1, 1835056, 1, 0, 1900592, 1, 1, 1966128, 65537, 0, 2031664, 65537, 1)

[node name="door" parent="." instance=ExtResource("3_ddodv")]
metadata/id = 1
